<?xml version="1.0" encoding="UTF-8"?>
<svg xmlns="http://www.w3.org/2000/svg" xmlns:xlink="http://www.w3.org/1999/xlink" width="400pt" height="250pt" viewBox="0 0 400 250" version="1.1">
<g id="surface1">
</g>
</svg>
